<svg width="47" height="24" viewBox="0 0 47 24" fill="none" xmlns="http://www.w3.org/2000/svg">
<path d="M23.5 0C10.8027 0 0.374019 11.5776 0.270418 11.6944L0 12L0.270418 12.3056C0.374019 12.4224 10.8027 24 23.5 24C36.1973 24 46.6242 12.4224 46.7296 12.3056L47 12L46.7296 11.6944C46.6242 11.5776 36.1973 0 23.5 0ZM23.5 23.0923C12.3479 23.0923 2.94474 13.8155 1.21161 12C2.94474 10.1845 12.3479 0.907729 23.5 0.907729C34.6521 0.907729 44.0553 10.1845 45.7866 12C44.0553 13.8155 34.6521 23.0923 23.5 23.0923Z" fill="#062328"/>
<path d="M23.5001 3.05753C18.6835 3.05753 14.7642 7.06951 14.7642 12C14.7642 16.9305 18.6835 20.9425 23.5001 20.9425C28.3167 20.9425 32.236 16.9305 32.236 12C32.236 7.06951 28.3167 3.05753 23.5001 3.05753ZM23.5001 20.0348C19.1716 20.0348 15.6509 16.4308 15.6509 12C15.6509 7.56921 19.1716 3.96525 23.5001 3.96525C27.8285 3.96525 31.3492 7.56921 31.3492 12C31.3492 16.4308 27.8285 20.0348 23.5001 20.0348Z" fill="#062328"/>
<path d="M23.5 8.00778C21.3507 8.00778 19.6 9.79808 19.6 12C19.6 14.2001 21.3489 15.9922 23.5 15.9922C25.6493 15.9922 27.3999 14.2019 27.3999 12C27.3999 9.79808 25.6493 8.00778 23.5 8.00778ZM23.5 15.0827C21.8388 15.0827 20.4867 13.6986 20.4867 11.9982C20.4867 10.2978 21.8388 8.91371 23.5 8.91371C25.1611 8.91371 26.5132 10.2978 26.5132 11.9982C26.5132 13.7004 25.1611 15.0827 23.5 15.0827Z" fill="#062328"/>
</svg>
